{
  "file_generated_by": "FlutterFire CLI",
  "purpose": "FirebaseAppID & ProjectID for this Firebase app in this directory",
  "GOOGLE_APP_ID": "1:198869988222:ios:bbf827e110d521d888f92f",
  "FIREBASE_PROJECT_ID": "katleho-motloenya-module-5",
  "GCM_SENDER_ID": "198869988222"
}